<svg width="344" height="180" viewBox="0 0 344 180" version="1.1" xmlns="http://www.w3.org/2000/svg" xmlns:xlink="http://www.w3.org/1999/xlink">
<title>arc</title>
<desc>Created using Figma</desc>
<g id="Canvas" transform="translate(-4243 -69)">
<g id="arc">
<g id="arc">
<g id="Ellipse" opacity="0.4" filter="url(#filter0_f)">
<use xlink:href="#path0_fill" transform="translate(4287 113)" fill="url(#paint0_angular)"/>
</g>
<g id="Ellipse" filter="url(#filter1_i)">
<use xlink:href="#path1_fill" transform="translate(4300 127)" fill="url(#paint1_angular)"/>
</g>
<g id="Ellipse 3">
<use xlink:href="#path2_fill" transform="translate(4318 145)" fill="#FFFFFF"/>
</g>
</g>
<g id="Vector">
<use xlink:href="#path3_stroke" transform="matrix(0.964149 0.265362 -0.265362 0.964149 4304 211)" fill="#FFFFFF" fill-opacity="0.2"/>
</g>
<g id="Vector">
<use xlink:href="#path4_stroke" transform="matrix(0.8322 0.554476 -0.554476 0.8322 4319 178)" fill="#FFFFFF" fill-opacity="0.2"/>
</g>
<g id="Vector">
<use xlink:href="#path5_stroke" transform="matrix(0.613941 0.789352 -0.789352 0.613941 4344 151)" fill="#FFFFFF" fill-opacity="0.2"/>
</g>
<g id="Vector">
<use xlink:href="#path6_stroke" transform="matrix(0.342448 0.939537 -0.939537 0.342448 4375 134)" fill="#FFFFFF" fill-opacity="0.2"/>
</g>
<g id="Vector">
<use xlink:href="#path3_stroke" transform="matrix(-0.964149 0.265362 0.265362 0.964149 4524 211)" fill="#FFFFFF" fill-opacity="0.2"/>
</g>
<g id="Vector">
<use xlink:href="#path4_stroke" transform="matrix(-0.8322 0.554476 0.554476 0.8322 4509 178)" fill="#FFFFFF" fill-opacity="0.2"/>
</g>
<g id="Vector">
<use xlink:href="#path5_stroke" transform="matrix(-0.613941 0.789352 0.789352 0.613941 4484 151)" fill="#FFFFFF" fill-opacity="0.2"/>
</g>
<g id="Vector">
<use xlink:href="#path6_stroke" transform="matrix(-0.342448 0.939537 0.939537 0.342448 4453 134)" fill="#FFFFFF" fill-opacity="0.2"/>
</g>
<g id="Vector">
<use xlink:href="#path7_stroke" transform="matrix(8.7647e-09 1 -1 8.7647e-09 4414 127)" fill="#FFFFFF" fill-opacity="0.2"/>
</g>
</g>
</g>
<defs>
<filter id="filter0_f" filterUnits="userSpaceOnUse" x="4243" y="69" width="344" height="180" color-interpolation-filters="sRGB">
<feFlood flood-opacity="0" result="BackgroundImageFix"/>
<feBlend mode="normal" in="SourceGraphic" in2="BackgroundImageFix" result="shape"/>
<feGaussianBlur stdDeviation="22" result="effect1_foregroundBlur"/>
</filter>
<filter id="filter1_i" filterUnits="userSpaceOnUse" x="4300" y="127" width="228" height="116" color-interpolation-filters="sRGB">
<feFlood flood-opacity="0" result="BackgroundImageFix"/>
<feBlend mode="normal" in="SourceGraphic" in2="BackgroundImageFix" result="shape"/>
<feColorMatrix in="SourceAlpha" type="matrix" values="0 0 0 0 0 0 0 0 0 0 0 0 0 0 0 0 0 0 255 0" result="hardAlpha"/>
<feOffset dx="0" dy="2"/>
<feGaussianBlur stdDeviation="7"/>
<feComposite in2="hardAlpha" operator="arithmetic" k2="-1" k3="1"/>
<feColorMatrix type="matrix" values="0 0 0 0 0 0 0 0 0 0 0 0 0 0 0 0 0 0 0.08 0"/>
<feBlend mode="normal" in2="shape" result="effect1_innerShadow"/>
</filter>
<radialGradient id="paint0_angular" cx="0.5" cy="0.5" r="0.5" gradientUnits="userSpaceOnUse" gradientTransform="matrix(-4.05968e-06 184 -256 -2.91797e-06 256 5.7503e-06)">
<stop offset="0.248619" stop-color="#06FF01"/>
<stop offset="0.407969" stop-color="#FACA20"/>
<stop offset="0.59116" stop-color="#F0264B"/>
<stop offset="0.745856" stop-color="#1B3DF2"/>
</radialGradient>
<radialGradient id="paint1_angular" cx="0.5" cy="0.5" r="0.5" gradientUnits="userSpaceOnUse" gradientTransform="matrix(-3.61565e-06 228 -228 -3.61575e-06 228 7.12537e-06)">
<stop offset="0.248619" stop-color="#35DE54"/>
<stop offset="0.407969" stop-color="#FACA20"/>
<stop offset="0.59116" stop-color="#F0264B"/>
<stop offset="0.745856" stop-color="#1B3DF2"/>
</radialGradient>
<path id="path0_fill" d="M 128 0C 58.2402 0 1.51449 40.1101 0.0298247 89.994C -0.00303527 91.0981 0.895431 92 2 92L 254 92C 255.105 92 256.003 91.0981 255.97 89.994C 254.486 40.1101 197.76 0 128 0Z"/>
<path id="path1_fill" d="M 114 0C 51.7101 0 1.08854 49.9581 0.0173213 111.992C -0.00174976 113.097 0.895431 114 2 114L 226 114C 227.105 114 228.002 113.097 227.983 111.992C 226.911 49.9581 176.29 0 114 0Z"/>
<path id="path2_fill" d="M 96 0C 42.9807 0 0 42.9807 0 96L 0 96.5L 192 96.5L 192 96C 192 42.9807 149.019 0 96 0Z"/>
<path id="path3_stroke" d="M 113.053 -0.5L 0 -0.5L 0 0.5L 113.053 0.5L 113.053 -0.5Z"/>
<path id="path4_stroke" d="M 114.072 -0.5L 0 -0.5L 0 0.5L 114.072 0.5L 114.072 -0.5Z"/>
<path id="path5_stroke" d="M 114.018 -0.5L 0 -0.5L 0 0.5L 114.018 0.5L 114.018 -0.5Z"/>
<path id="path6_stroke" d="M 113.886 -0.5L 0 -0.5L 0 0.5L 113.886 0.5L 113.886 -0.5Z"/>
<path id="path7_stroke" d="M 114 -0.5L 0 -0.5L 0 0.5L 114 0.5L 114 -0.5Z"/>
</defs>
</svg>
