<svg width="29" height="20" viewBox="0 0 29 20" version="1.1" xmlns="http://www.w3.org/2000/svg" xmlns:xlink="http://www.w3.org/1999/xlink">
<title>out-icon</title>
<desc>Created using Figma</desc>
<g id="Canvas" transform="translate(-5802 -614)">
<g id="out-icon">
<use xlink:href="#path0_stroke" transform="translate(5803 615)" fill="#FF6401"/>
<use xlink:href="#path0_stroke" transform="translate(5803 615)" fill="url(#paint1_linear)"/>
</g>
</g>
<defs>
<linearGradient id="paint1_linear" x1="0" y1="0" x2="1" y2="0" gradientUnits="userSpaceOnUse" gradientTransform="matrix(-27 18 -10.7195 -475.916 32.3598 237.958)">
<stop offset="0" stop-color="#FF6401"/>
<stop offset="1" stop-color="#FF9D00"/>
</linearGradient>
<path id="path0_stroke" d="M 19.7071 16.2929L 19 15.5858L 19.7071 16.2929ZM 26.2929 8.29289L 25.5858 9L 26.2929 8.29289ZM 26.2929 9.70711L 25.5858 9L 26.2929 9.70711ZM 19.7071 1.70711L 20.4142 1L 19.7071 1.70711ZM 19 2.41421L 25.5858 9L 27 7.58579L 20.4142 1L 19 2.41421ZM 25.5858 9L 19 15.5858L 20.4142 17L 27 10.4142L 25.5858 9ZM 17 2.41421L 17 5.5L 19 5.5L 19 2.41421L 17 2.41421ZM 17 5.5L 7 5.5L 7 7.5L 17 7.5L 17 5.5ZM 5 7.5L 5 11L 7 11L 7 7.5L 5 7.5ZM 7 13L 17 13L 17 11L 7 11L 7 13ZM 17 13L 17 15.5858L 19 15.5858L 19 13L 17 13ZM 11 3.5L 11 1L 9 1L 9 3.5L 11 3.5ZM 9 -1L 1 -1L 1 1L 9 1L 9 -1ZM -1 1L -1 17L 1 17L 1 1L -1 1ZM 1 19L 9 19L 9 17L 1 17L 1 19ZM 11 17L 11 14.5L 9 14.5L 9 17L 11 17ZM -1 17C -1 18.1046 -0.104569 19 1 19L 1 17L -1 17ZM 1 -1C -0.104569 -1 -1 -0.104569 -1 1L 1 1L 1 -1ZM 11 1C 11 -0.104569 10.1046 -1 9 -1L 9 1L 11 1ZM 17 13L 19 13C 19 11.8954 18.1046 11 17 11L 17 13ZM 5 11C 5 12.1046 5.89543 13 7 13L 7 11L 5 11ZM 7 5.5C 5.89543 5.5 5 6.39543 5 7.5L 7 7.5L 7 5.5ZM 17 5.5L 17 7.5C 18.1046 7.5 19 6.60457 19 5.5L 17 5.5ZM 19 15.5858L 17 15.5858C 17 17.3676 19.1543 18.2599 20.4142 17L 19 15.5858ZM 25.5858 9L 27 10.4142C 27.781 9.63317 27.781 8.36684 27 7.58579L 25.5858 9ZM 9 19C 10.1046 19 11 18.1046 11 17L 9 17L 9 19ZM 20.4142 1C 19.1543 -0.25993 17 0.632404 17 2.41421L 19 2.41421L 20.4142 1Z"/>
</defs>
</svg>
